{
  "id": "8hRFK0iEjVKmthLq",
  "meta": {
    "instanceId": "84ad02d6104594179f43f1ce9cfe3a81637b2faedb57dafcb9e649b7542988db",
    "templateCredsSetupCompleted": true
  },
  "name": "CrunchBase Invester Data",
  "tags": [
    {
      "name": "nordsym"
    },
    {
      "name": "flowvault"
    }
  ],
  "nodes": [
    {
      "id": "49130296-ad2e-43f6-8ec4-7f72161a3a1b",
      "name": "Daily Investor Data Trigger",
      "type": "n8n-nodes-base.scheduleTrigger",
      "position": [
        0,
        0
      ],
      "parameters": {
        "rule": {
          "interval": [
            {
              "triggerAtHour": 9
            }
          ]
        }
      },
      "typeVersion": 1.2
    },
    {
      "id": "24caa890-abba-435d-a385-18cdef03dfe2",
      "name": "Fetch Crunchbase Investor Data",
      "type": "n8n-nodes-base.httpRequest",
      "position": [
        220,
        0
      ],
      "parameters": {
        "url": "https://api.crunchbase.com/api/v4/searches/organizations",
        "method": "POST",
        "options": {},
        "jsonBody": "{\n  \"field_ids\": [\n    \"identifier\",\n    \"name\",\n    \"short_description\",\n    \"location_identifiers\",\n    \"investment_stage\"\n  ],\n  \"query\": [\n    {\n      \"type\": \"predicate\",\n      \"field_id\": \"organization_types\",\n      \"operator_id\": \"includes\",\n      \"values\": [\n        \"investor\"\n      ]\n    }\n  ],\n  \"limit\": 5\n}",
        "sendBody": true,
        "sendHeaders": true,
        "specifyBody": "json",
        "headerParameters": {
          "parameters": [
            {
              "name": "Authorization",
              "value": "Bearer YOUR_CRUNCHBASE_API_KEY"
            },
            {
              "name": "Authorization",
              "value": "Bearer YOUR_CRUNCHBASE_API_KEY"
            }
          ]
        }
      },
      "typeVersion": 4.2
    },
    {
      "id": "4de0847b-6e11-457d-b04b-d03b4fb1e3c1",
      "name": "Extract Investor Fields",
      "type": "n8n-nodes-base.code",
      "position": [
        540,
        0
      ],
      "parameters": {
        "jsCode": "const entities = items[0].json.entities;\n\nreturn entities.map(entity => {\n  return {\n    json: {\n      name: entity.name,\n      short_description: entity.short_description,\n      location_identifiers: entity.location_identifiers,\n      investment_stage: entity.investment_stage\n    }\n  };\n});\n"
      },
      "typeVersion": 2
    },
    {
      "id": "a7d08f10-1fde-4e99-9127-bf12926d4197",
      "name": "Append to Investor Sheet",
      "type": "n8n-nodes-base.googleSheets",
      "position": [
        780,
        0
      ],
      "parameters": {
        "columns": {
          "value": {
            "Name": "={{ $json.name }}",
            "Location": "={{ $json.location_identifiers }}",
            "Investment Stage": "={{ $json.investment_stage }}",
            "Short description": "={{ $json.short_description }}"
          },
          "schema": [
            {
              "id": "Name",
              "type": "string",
              "display": true,
              "required": false,
              "displayName": "Name",
              "defaultMatch": false,
              "canBeUsedToMatch": true
            },
            {
              "id": "Short description",
              "type": "string",
              "display": true,
              "required": false,
              "displayName": "Short description",
              "defaultMatch": false,
              "canBeUsedToMatch": true
            },
            {
              "id": "Location",
              "type": "string",
              "display": true,
              "required": false,
              "displayName": "Location",
              "defaultMatch": false,
              "canBeUsedToMatch": true
            },
            {
              "id": "Investment Stage",
              "type": "string",
              "display": true,
              "removed": false,
              "required": false,
              "displayName": "Investment Stage",
              "defaultMatch": false,
              "canBeUsedToMatch": true
            }
          ],
          "mappingMode": "defineBelow",
          "matchingColumns": [],
          "attemptToConvertTypes": false,
          "convertFieldsToString": false
        },
        "options": {},
        "operation": "append",
        "sheetName": {
          "__rl": true,
          "mode": "list",
          "value": "gid=0",
          "cachedResultUrl": "https://docs.google.com/spreadsheets/d/1XOUvOgrhDdOorEj0-TL4EiVygMd1wpD3cktI2_bm-Ww/edit#gid=0",
          "cachedResultName": "Sheet1"
        },
        "documentId": {
          "__rl": true,
          "mode": "list",
          "value": "1XOUvOgrhDdOorEj0-TL4EiVygMd1wpD3cktI2_bm-Ww",
          "cachedResultUrl": "https://docs.google.com/spreadsheets/d/1XOUvOgrhDdOorEj0-TL4EiVygMd1wpD3cktI2_bm-Ww/edit?usp=drivesdk",
          "cachedResultName": "CrunchBase Invester List"
        }
      },
      "credentials": {},
      "typeVersion": 4.5
    },
    {
      "parameters": {
        "content": "## FlowVault by NordSym\n\nProduction-ready n8n workflow, curated by NordSym AB. Built in Stockholm.\n\n### Before you activate\n1. Review every node - we stripped credentials, you add your own\n2. Replace webhook URLs, API keys, and placeholders\n3. Test on non-production data first\n4. Pin the nodes you edit so upstream updates don't overwrite them\n\n### Resources\n- Full library: flowvault.se\n- Support: gustav@nordsym.com\n- Tag: #nordsym #flowvault\n",
        "height": 340,
        "width": 420,
        "color": 4
      },
      "id": "nordsym-sticky-note",
      "name": "NordSym FlowVault",
      "type": "n8n-nodes-base.stickyNote",
      "typeVersion": 1,
      "position": [
        -260,
        -260
      ]
    }
  ],
  "active": false,
  "pinData": {
    "Fetch Crunchbase Investor Data": [
      {
        "json": {
          "paging": {
            "next_page": "cursor_string",
            "total_items": 1250,
            "current_page": 1
          },
          "entities": [
            {
              "name": "Sequoia Capital",
              "identifier": {
                "uuid": "12345",
                "permalink": "sequoia-capital"
              },
              "investment_stage": [
                "early_stage",
                "seed"
              ],
              "short_description": "Venture capital firm investing in early-stage companies.",
              "location_identifiers": [
                "united_states"
              ]
            },
            {
              "name": "Andreessen Horowitz",
              "identifier": {
                "uuid": "67890",
                "permalink": "andreesen-horowitz"
              },
              "investment_stage": [
                "seed",
                "growth_stage"
              ],
              "short_description": "Venture capital firm in Silicon Valley.",
              "location_identifiers": [
                "united_states"
              ]
            }
          ]
        }
      }
    ]
  },
  "settings": {
    "executionOrder": "v1"
  },
  "versionId": "daeaf695-d4ae-460d-84b1-b4cdba520d28",
  "connections": {
    "Extract Investor Fields": {
      "main": [
        [
          {
            "node": "Append to Investor Sheet",
            "type": "main",
            "index": 0
          }
        ]
      ]
    },
    "Daily Investor Data Trigger": {
      "main": [
        [
          {
            "node": "Fetch Crunchbase Investor Data",
            "type": "main",
            "index": 0
          }
        ]
      ]
    },
    "Fetch Crunchbase Investor Data": {
      "main": [
        [
          {
            "node": "Extract Investor Fields",
            "type": "main",
            "index": 0
          }
        ]
      ]
    }
  }
}